(kicad_sch (version 20211123) (generator eeschema)

  (uuid 79e31048-072a-4a40-a625-26bb0b5f046b)

  (paper "A4")

  (lib_symbols
    (symbol "Device:R" (pin_numbers hide) (pin_names (offset 0)) (in_bom yes) (on_board yes)
      (property "Reference" "R" (id 0) (at 2.032 0 90)
        (effects (font (size 1.27 1.27)))
      )
      (property "Value" "R" (id 1) (at 0 0 90)
        (effects (font (size 1.27 1.27)))
      )
      (property "Footprint" "" (id 2) (at -1.778 0 90)
        (effects (font (size 1.27 1.27)) hide)
      )
      (property "Datasheet" "~" (id 3) (at 0 0 0)
        (effects (font (size 1.27 1.27)) hide)
      )
      (property "ki_keywords" "R res resistor" (id 4) (at 0 0 0)
        (effects (font (size 1.27 1.27)) hide)
      )
      (property "ki_description" "Resistor" (id 5) (at 0 0 0)
        (effects (font (size 1.27 1.27)) hide)
      )
      (property "ki_fp_filters" "R_*" (id 6) (at 0 0 0)
        (effects (font (size 1.27 1.27)) hide)
      )
      (symbol "R_0_1"
        (rectangle (start -1.016 -2.54) (end 1.016 2.54)
          (stroke (width 0.254) (type default) (color 0 0 0 0))
          (fill (type none))
        )
      )
      (symbol "R_1_1"
        (pin passive line (at 0 3.81 270) (length 1.27)
          (name "~" (effects (font (size 1.27 1.27))))
          (number "1" (effects (font (size 1.27 1.27))))
        )
        (pin passive line (at 0 -3.81 90) (length 1.27)
          (name "~" (effects (font (size 1.27 1.27))))
          (number "2" (effects (font (size 1.27 1.27))))
        )
      )
    )
    (symbol "Display_Character:HDSP-A151" (in_bom yes) (on_board yes)
      (property "Reference" "U" (id 0) (at -3.81 13.97 0)
        (effects (font (size 1.27 1.27)))
      )
      (property "Value" "HDSP-A151" (id 1) (at 6.35 13.97 0)
        (effects (font (size 1.27 1.27)))
      )
      (property "Footprint" "Display_7Segment:HDSP-A151" (id 2) (at 0 -13.97 0)
        (effects (font (size 1.27 1.27)) hide)
      )
      (property "Datasheet" "https://docs.broadcom.com/docs/AV02-2553EN" (id 3) (at -12.7 13.97 0)
        (effects (font (size 1.27 1.27)) hide)
      )
      (property "ki_keywords" "display LED 7-segment" (id 4) (at 0 0 0)
        (effects (font (size 1.27 1.27)) hide)
      )
      (property "ki_description" "One digit 7 segment red, common anode" (id 5) (at 0 0 0)
        (effects (font (size 1.27 1.27)) hide)
      )
      (property "ki_fp_filters" "HDSP?A151*" (id 6) (at 0 0 0)
        (effects (font (size 1.27 1.27)) hide)
      )
      (symbol "HDSP-A151_1_0"
        (text "A" (at 0.254 2.413 0)
          (effects (font (size 0.508 0.508)))
        )
        (text "B" (at 2.54 1.651 0)
          (effects (font (size 0.508 0.508)))
        )
        (text "C" (at 2.286 -1.397 0)
          (effects (font (size 0.508 0.508)))
        )
        (text "D" (at -0.254 -2.159 0)
          (effects (font (size 0.508 0.508)))
        )
        (text "DP" (at 3.556 -2.921 0)
          (effects (font (size 0.508 0.508)))
        )
        (text "E" (at -2.54 -1.397 0)
          (effects (font (size 0.508 0.508)))
        )
        (text "F" (at -2.286 1.651 0)
          (effects (font (size 0.508 0.508)))
        )
        (text "G" (at 0 0.889 0)
          (effects (font (size 0.508 0.508)))
        )
      )
      (symbol "HDSP-A151_1_1"
        (rectangle (start -5.08 12.7) (end 5.08 -12.7)
          (stroke (width 0.254) (type default) (color 0 0 0 0))
          (fill (type background))
        )
        (polyline
          (pts
            (xy -1.524 -0.381)
            (xy -1.778 -2.413)
          )
          (stroke (width 0.508) (type default) (color 0 0 0 0))
          (fill (type none))
        )
        (polyline
          (pts
            (xy -1.27 -2.921)
            (xy 0.762 -2.921)
          )
          (stroke (width 0.508) (type default) (color 0 0 0 0))
          (fill (type none))
        )
        (polyline
          (pts
            (xy -1.27 2.667)
            (xy -1.524 0.635)
          )
          (stroke (width 0.508) (type default) (color 0 0 0 0))
          (fill (type none))
        )
        (polyline
          (pts
            (xy -1.016 0.127)
            (xy 1.016 0.127)
          )
          (stroke (width 0.508) (type default) (color 0 0 0 0))
          (fill (type none))
        )
        (polyline
          (pts
            (xy -0.762 3.175)
            (xy 1.27 3.175)
          )
          (stroke (width 0.508) (type default) (color 0 0 0 0))
          (fill (type none))
        )
        (polyline
          (pts
            (xy 1.524 -0.381)
            (xy 1.27 -2.413)
          )
          (stroke (width 0.508) (type default) (color 0 0 0 0))
          (fill (type none))
        )
        (polyline
          (pts
            (xy 1.778 2.667)
            (xy 1.524 0.635)
          )
          (stroke (width 0.508) (type default) (color 0 0 0 0))
          (fill (type none))
        )
        (polyline
          (pts
            (xy 2.54 -2.921)
            (xy 2.54 -2.921)
          )
          (stroke (width 0.508) (type default) (color 0 0 0 0))
          (fill (type none))
        )
        (pin input line (at 7.62 -7.62 180) (length 2.54)
          (name "CA" (effects (font (size 1.27 1.27))))
          (number "1" (effects (font (size 1.27 1.27))))
        )
        (pin input line (at -7.62 7.62 0) (length 2.54)
          (name "A" (effects (font (size 1.27 1.27))))
          (number "10" (effects (font (size 1.27 1.27))))
        )
        (pin input line (at -7.62 -5.08 0) (length 2.54)
          (name "F" (effects (font (size 1.27 1.27))))
          (number "2" (effects (font (size 1.27 1.27))))
        )
        (pin input line (at -7.62 -7.62 0) (length 2.54)
          (name "G" (effects (font (size 1.27 1.27))))
          (number "3" (effects (font (size 1.27 1.27))))
        )
        (pin input line (at -7.62 -2.54 0) (length 2.54)
          (name "E" (effects (font (size 1.27 1.27))))
          (number "4" (effects (font (size 1.27 1.27))))
        )
        (pin input line (at -7.62 0 0) (length 2.54)
          (name "D" (effects (font (size 1.27 1.27))))
          (number "5" (effects (font (size 1.27 1.27))))
        )
        (pin input line (at 7.62 -10.16 180) (length 2.54)
          (name "CA" (effects (font (size 1.27 1.27))))
          (number "6" (effects (font (size 1.27 1.27))))
        )
        (pin input line (at -7.62 -10.16 0) (length 2.54)
          (name "DP" (effects (font (size 1.27 1.27))))
          (number "7" (effects (font (size 1.27 1.27))))
        )
        (pin input line (at -7.62 2.54 0) (length 2.54)
          (name "C" (effects (font (size 1.27 1.27))))
          (number "8" (effects (font (size 1.27 1.27))))
        )
        (pin input line (at -7.62 5.08 0) (length 2.54)
          (name "B" (effects (font (size 1.27 1.27))))
          (number "9" (effects (font (size 1.27 1.27))))
        )
      )
    )
  )


  (wire (pts (xy 127 82.55) (xy 119.38 82.55))
    (stroke (width 0) (type default) (color 0 0 0 0))
    (uuid 00052978-ab16-4209-8e13-9b91f299937b)
  )
  (wire (pts (xy 100.33 107.95) (xy 111.76 107.95))
    (stroke (width 0) (type default) (color 0 0 0 0))
    (uuid 02823022-1e84-42f9-b62a-4f99dde6f006)
  )
  (wire (pts (xy 100.33 97.79) (xy 111.76 97.79))
    (stroke (width 0) (type default) (color 0 0 0 0))
    (uuid 1c4356b3-6765-4a8d-852d-6ba919f77f4c)
  )
  (wire (pts (xy 119.38 92.71) (xy 128.27 92.71))
    (stroke (width 0) (type default) (color 0 0 0 0))
    (uuid 20ab0a2a-e9b1-468c-b8ee-493e4f3364fa)
  )
  (wire (pts (xy 128.27 90.17) (xy 125.73 90.17))
    (stroke (width 0) (type default) (color 0 0 0 0))
    (uuid 21e40cbb-5fa0-405a-bfcc-c3c922e0f972)
  )
  (wire (pts (xy 123.19 100.33) (xy 123.19 107.95))
    (stroke (width 0) (type default) (color 0 0 0 0))
    (uuid 27c080b2-2e86-4431-a5ca-a10a43ea5512)
  )
  (wire (pts (xy 128.27 102.87) (xy 125.73 102.87))
    (stroke (width 0) (type default) (color 0 0 0 0))
    (uuid 33e04291-d741-43b4-8570-8ff0dc75f27b)
  )
  (wire (pts (xy 125.73 102.87) (xy 125.73 113.03))
    (stroke (width 0) (type default) (color 0 0 0 0))
    (uuid 37a10726-fc04-4c1a-8dee-3fc41da8a633)
  )
  (wire (pts (xy 100.33 113.03) (xy 111.76 113.03))
    (stroke (width 0) (type default) (color 0 0 0 0))
    (uuid 3910ea7b-f04d-4070-af5f-98aa91acb0e6)
  )
  (wire (pts (xy 120.65 97.79) (xy 120.65 102.87))
    (stroke (width 0) (type default) (color 0 0 0 0))
    (uuid 4e861564-3fc9-4499-bcb5-924b020fe945)
  )
  (wire (pts (xy 128.27 97.79) (xy 120.65 97.79))
    (stroke (width 0) (type default) (color 0 0 0 0))
    (uuid 58760540-19f8-4005-92e1-da63906b14e0)
  )
  (wire (pts (xy 100.33 87.63) (xy 111.76 87.63))
    (stroke (width 0) (type default) (color 0 0 0 0))
    (uuid 5af7129a-30a8-4773-ae85-6723284353ea)
  )
  (wire (pts (xy 125.73 87.63) (xy 119.38 87.63))
    (stroke (width 0) (type default) (color 0 0 0 0))
    (uuid 6307f4d1-3990-4952-8155-f8a01e695459)
  )
  (wire (pts (xy 128.27 100.33) (xy 123.19 100.33))
    (stroke (width 0) (type default) (color 0 0 0 0))
    (uuid 80e74d16-46ff-42ee-9acd-3629fe1a0469)
  )
  (wire (pts (xy 123.19 107.95) (xy 119.38 107.95))
    (stroke (width 0) (type default) (color 0 0 0 0))
    (uuid 819dd792-0eca-4da0-9b32-3f5f4263e087)
  )
  (wire (pts (xy 128.27 87.63) (xy 127 87.63))
    (stroke (width 0) (type default) (color 0 0 0 0))
    (uuid 86500cee-5497-43d7-b79b-8cc4e6ca2dce)
  )
  (wire (pts (xy 100.33 102.87) (xy 111.76 102.87))
    (stroke (width 0) (type default) (color 0 0 0 0))
    (uuid 86e6ba14-cbf6-4b97-8950-55483aa7518d)
  )
  (wire (pts (xy 128.27 95.25) (xy 119.38 95.25))
    (stroke (width 0) (type default) (color 0 0 0 0))
    (uuid 871f0266-37ce-4c70-8d4d-98e755db9e85)
  )
  (wire (pts (xy 127 87.63) (xy 127 82.55))
    (stroke (width 0) (type default) (color 0 0 0 0))
    (uuid 8f3a30bd-0355-4493-a3c9-115b399721a5)
  )
  (wire (pts (xy 119.38 95.25) (xy 119.38 97.79))
    (stroke (width 0) (type default) (color 0 0 0 0))
    (uuid 981b0e95-840d-4d82-b87c-9349a9a8ab37)
  )
  (wire (pts (xy 125.73 90.17) (xy 125.73 87.63))
    (stroke (width 0) (type default) (color 0 0 0 0))
    (uuid 99f2b1cb-1467-402d-a560-edfd34c25da9)
  )
  (wire (pts (xy 120.65 102.87) (xy 119.38 102.87))
    (stroke (width 0) (type default) (color 0 0 0 0))
    (uuid af90ad3d-8baf-4b82-9da5-381b1f33f848)
  )
  (wire (pts (xy 100.33 92.71) (xy 111.76 92.71))
    (stroke (width 0) (type default) (color 0 0 0 0))
    (uuid c61a4134-141d-4fe6-bfb7-40b21de73ec1)
  )
  (wire (pts (xy 100.33 82.55) (xy 111.76 82.55))
    (stroke (width 0) (type default) (color 0 0 0 0))
    (uuid d5440eb4-5ee9-4be0-9727-f16f2b60f059)
  )
  (wire (pts (xy 119.38 113.03) (xy 125.73 113.03))
    (stroke (width 0) (type default) (color 0 0 0 0))
    (uuid e021eebb-881e-4907-b8b9-66001bee1546)
  )

  (global_label "d" (shape output) (at 100.33 97.79 180) (fields_autoplaced)
    (effects (font (size 1.27 1.27)) (justify right))
    (uuid 0630363c-cc4a-4aef-82d1-a63f3cf64631)
    (property "Intersheet References" "${INTERSHEET_REFS}" (id 0) (at 96.7679 97.7106 0)
      (effects (font (size 1.27 1.27)) (justify right) hide)
    )
  )
  (global_label "a" (shape output) (at 100.33 82.55 180) (fields_autoplaced)
    (effects (font (size 1.27 1.27)) (justify right))
    (uuid 3dd9894d-0db0-4b17-807c-ff1cecb8974b)
    (property "Intersheet References" "${INTERSHEET_REFS}" (id 0) (at 96.7679 82.4706 0)
      (effects (font (size 1.27 1.27)) (justify right) hide)
    )
  )
  (global_label "e" (shape output) (at 100.33 102.87 180) (fields_autoplaced)
    (effects (font (size 1.27 1.27)) (justify right))
    (uuid 48bcf619-df9e-4b9b-9b05-206a822fcaa1)
    (property "Intersheet References" "${INTERSHEET_REFS}" (id 0) (at 96.8283 102.7906 0)
      (effects (font (size 1.27 1.27)) (justify right) hide)
    )
  )
  (global_label "b" (shape output) (at 100.33 87.63 180) (fields_autoplaced)
    (effects (font (size 1.27 1.27)) (justify right))
    (uuid 79906ec9-1b17-4c2d-bc6f-8da193c6d665)
    (property "Intersheet References" "${INTERSHEET_REFS}" (id 0) (at 96.7679 87.5506 0)
      (effects (font (size 1.27 1.27)) (justify right) hide)
    )
  )
  (global_label "f" (shape output) (at 100.33 107.95 180) (fields_autoplaced)
    (effects (font (size 1.27 1.27)) (justify right))
    (uuid 88bd7924-9922-4a7a-9ef9-4d8f2e15e716)
    (property "Intersheet References" "${INTERSHEET_REFS}" (id 0) (at 97.1912 107.8706 0)
      (effects (font (size 1.27 1.27)) (justify right) hide)
    )
  )
  (global_label "g" (shape output) (at 100.33 113.03 180) (fields_autoplaced)
    (effects (font (size 1.27 1.27)) (justify right))
    (uuid 8b64a89d-068f-4db2-b5ad-d861619031bb)
    (property "Intersheet References" "${INTERSHEET_REFS}" (id 0) (at 96.7679 112.9506 0)
      (effects (font (size 1.27 1.27)) (justify right) hide)
    )
  )
  (global_label "c" (shape output) (at 100.33 92.71 180) (fields_autoplaced)
    (effects (font (size 1.27 1.27)) (justify right))
    (uuid b0400be5-d454-4edd-870a-1a47f2eaae24)
    (property "Intersheet References" "${INTERSHEET_REFS}" (id 0) (at 96.8283 92.6306 0)
      (effects (font (size 1.27 1.27)) (justify right) hide)
    )
  )

  (symbol (lib_id "Device:R") (at 115.57 87.63 90) (unit 1)
    (in_bom yes) (on_board yes)
    (uuid 12b8f281-7798-4594-b4fc-3a4edb33e10c)
    (property "Reference" "R?" (id 0) (at 115.57 77.8342 90))
    (property "Value" "R" (id 1) (at 115.57 80.3711 90))
    (property "Footprint" "" (id 2) (at 115.57 89.408 90)
      (effects (font (size 1.27 1.27)) hide)
    )
    (property "Datasheet" "~" (id 3) (at 115.57 87.63 0)
      (effects (font (size 1.27 1.27)) hide)
    )
    (pin "1" (uuid c399726c-7232-4b0f-8bf4-485dc663fc5e))
    (pin "2" (uuid 494fce80-df7e-4e8e-aa41-5e7742fa2c1f))
  )

  (symbol (lib_id "Device:R") (at 115.57 82.55 270) (unit 1)
    (in_bom yes) (on_board yes) (fields_autoplaced)
    (uuid 1aa23cd3-eaf1-4691-95cd-4748f353d4b0)
    (property "Reference" "R?" (id 0) (at 115.57 77.8342 90))
    (property "Value" "R" (id 1) (at 115.57 80.3711 90))
    (property "Footprint" "" (id 2) (at 115.57 80.772 90)
      (effects (font (size 1.27 1.27)) hide)
    )
    (property "Datasheet" "~" (id 3) (at 115.57 82.55 0)
      (effects (font (size 1.27 1.27)) hide)
    )
    (pin "1" (uuid 7aebf7f9-94c9-4aa7-b1f2-d7623bd91f7f))
    (pin "2" (uuid de0e3321-4b55-4b39-84ce-09d0dbd64682))
  )

  (symbol (lib_id "Device:R") (at 115.57 102.87 90) (unit 1)
    (in_bom yes) (on_board yes) (fields_autoplaced)
    (uuid 24024ed1-c06c-4d7c-a763-9a639451621d)
    (property "Reference" "R?" (id 0) (at 115.57 98.1542 90))
    (property "Value" "R" (id 1) (at 115.57 100.6911 90))
    (property "Footprint" "" (id 2) (at 115.57 104.648 90)
      (effects (font (size 1.27 1.27)) hide)
    )
    (property "Datasheet" "~" (id 3) (at 115.57 102.87 0)
      (effects (font (size 1.27 1.27)) hide)
    )
    (pin "1" (uuid 9e08501c-638a-443f-8185-5ef28ecf1b09))
    (pin "2" (uuid 538ae57a-ef44-4fd7-a075-818f4ac94c63))
  )

  (symbol (lib_id "Device:R") (at 115.57 113.03 90) (unit 1)
    (in_bom yes) (on_board yes) (fields_autoplaced)
    (uuid 2cdd6a82-e941-4486-beed-3870aaf79794)
    (property "Reference" "R?" (id 0) (at 115.57 108.3142 90))
    (property "Value" "R" (id 1) (at 115.57 110.8511 90))
    (property "Footprint" "" (id 2) (at 115.57 114.808 90)
      (effects (font (size 1.27 1.27)) hide)
    )
    (property "Datasheet" "~" (id 3) (at 115.57 113.03 0)
      (effects (font (size 1.27 1.27)) hide)
    )
    (pin "1" (uuid 83d31f43-0b61-4859-920d-3bcc273caba1))
    (pin "2" (uuid 1bf04834-617f-48b6-9f20-f1a43eaf6419))
  )

  (symbol (lib_id "Display_Character:HDSP-A151") (at 135.89 95.25 0) (unit 1)
    (in_bom yes) (on_board yes) (fields_autoplaced)
    (uuid b8e4a342-ab60-4513-b45f-d347e537fefb)
    (property "Reference" "U?" (id 0) (at 135.89 78.8502 0))
    (property "Value" "HDSP-A151" (id 1) (at 135.89 81.3871 0))
    (property "Footprint" "Display_7Segment:HDSP-A151" (id 2) (at 135.89 109.22 0)
      (effects (font (size 1.27 1.27)) hide)
    )
    (property "Datasheet" "https://docs.broadcom.com/docs/AV02-2553EN" (id 3) (at 123.19 81.28 0)
      (effects (font (size 1.27 1.27)) hide)
    )
    (pin "1" (uuid 5a822f01-b543-4752-8bc2-a7c0e5202608))
    (pin "10" (uuid 5bad7a07-0546-4193-8937-5df0cfbb016b))
    (pin "2" (uuid 2f811782-c71f-403e-aef0-bcf38134a13e))
    (pin "3" (uuid 4f84fa4a-e954-4c3e-8400-52546198c14d))
    (pin "4" (uuid d25b4fbd-c365-4d80-83e4-e4fd9555cb16))
    (pin "5" (uuid 8b46b7ad-a404-4768-856b-5aa85ba5a05f))
    (pin "6" (uuid c4e2c33e-b7df-460b-88ae-a29d44b07ce1))
    (pin "7" (uuid fb0cce1b-635f-4898-bd82-4fbc039de5fb))
    (pin "8" (uuid 9c0caeca-aab3-4012-bbad-cad4ca1a28ee))
    (pin "9" (uuid 5cd39e09-a9bd-4e2c-a6e8-c1ab0260eb35))
  )

  (symbol (lib_id "Device:R") (at 115.57 92.71 90) (unit 1)
    (in_bom yes) (on_board yes) (fields_autoplaced)
    (uuid be700ba0-c5d1-44b0-9aee-c6fd93ba2ac6)
    (property "Reference" "R?" (id 0) (at 115.57 87.9942 90))
    (property "Value" "R" (id 1) (at 115.57 90.5311 90))
    (property "Footprint" "" (id 2) (at 115.57 94.488 90)
      (effects (font (size 1.27 1.27)) hide)
    )
    (property "Datasheet" "~" (id 3) (at 115.57 92.71 0)
      (effects (font (size 1.27 1.27)) hide)
    )
    (pin "1" (uuid 95cdeb47-0abf-4598-92b6-e29ccf68a01b))
    (pin "2" (uuid c4a54d4d-c35c-4ca0-8507-93d9297306f5))
  )

  (symbol (lib_id "Device:R") (at 115.57 107.95 90) (unit 1)
    (in_bom yes) (on_board yes) (fields_autoplaced)
    (uuid c57f216c-7b95-490c-b05d-64f57cf2aecb)
    (property "Reference" "R?" (id 0) (at 115.57 103.2342 90))
    (property "Value" "R" (id 1) (at 115.57 105.7711 90))
    (property "Footprint" "" (id 2) (at 115.57 109.728 90)
      (effects (font (size 1.27 1.27)) hide)
    )
    (property "Datasheet" "~" (id 3) (at 115.57 107.95 0)
      (effects (font (size 1.27 1.27)) hide)
    )
    (pin "1" (uuid b4ec9234-3594-4560-a77c-3402b4624eaa))
    (pin "2" (uuid b5b23d9e-6c53-4df8-8e63-5747d57d3ac7))
  )

  (symbol (lib_id "Device:R") (at 115.57 97.79 90) (unit 1)
    (in_bom yes) (on_board yes) (fields_autoplaced)
    (uuid d9835507-c175-4631-b3f8-108eeed6750d)
    (property "Reference" "R?" (id 0) (at 115.57 93.0742 90))
    (property "Value" "R" (id 1) (at 115.57 95.6111 90))
    (property "Footprint" "" (id 2) (at 115.57 99.568 90)
      (effects (font (size 1.27 1.27)) hide)
    )
    (property "Datasheet" "~" (id 3) (at 115.57 97.79 0)
      (effects (font (size 1.27 1.27)) hide)
    )
    (pin "1" (uuid b942eec9-684c-4d17-9260-1dcf674f7255))
    (pin "2" (uuid 78344d78-1794-4a14-963e-80bc9b99eebd))
  )
)
